%YAML 1.1
%TAG !u! tag:unity3d.com,2011:
--- !u!114 &1020535955150615645
MonoBehaviour:
  m_ObjectHideFlags: 0
  m_CorrespondingSourceObject: {fileID: 0}
  m_PrefabInstance: {fileID: 0}
  m_PrefabAsset: {fileID: 0}
  m_GameObject: {fileID: 8132664920851537708}
  m_Enabled: 1
  m_EditorHideFlags: 0
  m_Script: {fileID: 11500000, guid: 6f8ce967c58babe489656c961a1fdf93, type: 3}
  m_Name: 
  m_EditorClassIdentifier: 
  dirEntry: {fileID: 8427298752099120258, guid: 2c89d53640bfd0a4baca96c0ae3a5e73,
    type: 3}
  fileEntry: {fileID: 6805907419730671920, guid: 881cb4ca2cb001947a99a937d0743eae,
    type: 3}
  _windowTitle: {fileID: 4301133372551198903}
  windowContent: {fileID: 3175055041586204121}
--- !u!114 &9134627181897699751
MonoBehaviour:
  m_ObjectHideFlags: 0
  m_CorrespondingSourceObject: {fileID: 0}
  m_PrefabInstance: {fileID: 0}
  m_PrefabAsset: {fileID: 0}
  m_GameObject: {fileID: 3175055041586204121}
  m_Enabled: 1
  m_EditorHideFlags: 0
  m_Script: {fileID: 1297475563, guid: f70555f144d8491a825f0804e09c671c, type: 3}
  m_Name: 
  m_EditorClassIdentifier: 
  m_Padding:
    m_Left: 0
    m_Right: 0
    m_Top: 0
    m_Bottom: 0
  m_ChildAlignment: 0
  m_Spacing: 0
  m_ChildForceExpandWidth: 1
  m_ChildForceExpandHeight: 0
  m_ChildControlWidth: 1
  m_ChildControlHeight: 1
--- !u!1001 &3914674716504190324
PrefabInstance:
  m_ObjectHideFlags: 0
  serializedVersion: 2
  m_Modification:
    m_TransformParent: {fileID: 0}
    m_Modifications:
    - target: {fileID: 5084194826137481816, guid: 62a09bcc48bb2b3428b1a964dbb8f02c,
        type: 3}
      propertyPath: m_Name
      value: FileList - Window Variant
      objectReference: {fileID: 0}
    - target: {fileID: 5514891804009495759, guid: 62a09bcc48bb2b3428b1a964dbb8f02c,
        type: 3}
      propertyPath: m_LocalPosition.x
      value: 0
      objectReference: {fileID: 0}
    - target: {fileID: 5514891804009495759, guid: 62a09bcc48bb2b3428b1a964dbb8f02c,
        type: 3}
      propertyPath: m_LocalPosition.y
      value: 0
      objectReference: {fileID: 0}
    - target: {fileID: 5514891804009495759, guid: 62a09bcc48bb2b3428b1a964dbb8f02c,
        type: 3}
      propertyPath: m_LocalPosition.z
      value: 0
      objectReference: {fileID: 0}
    - target: {fileID: 5514891804009495759, guid: 62a09bcc48bb2b3428b1a964dbb8f02c,
        type: 3}
      propertyPath: m_LocalRotation.x
      value: 0
      objectReference: {fileID: 0}
    - target: {fileID: 5514891804009495759, guid: 62a09bcc48bb2b3428b1a964dbb8f02c,
        type: 3}
      propertyPath: m_LocalRotation.y
      value: 0
      objectReference: {fileID: 0}
    - target: {fileID: 5514891804009495759, guid: 62a09bcc48bb2b3428b1a964dbb8f02c,
        type: 3}
      propertyPath: m_LocalRotation.z
      value: 0
      objectReference: {fileID: 0}
    - target: {fileID: 5514891804009495759, guid: 62a09bcc48bb2b3428b1a964dbb8f02c,
        type: 3}
      propertyPath: m_LocalRotation.w
      value: 1
      objectReference: {fileID: 0}
    - target: {fileID: 5514891804009495759, guid: 62a09bcc48bb2b3428b1a964dbb8f02c,
        type: 3}
      propertyPath: m_RootOrder
      value: 0
      objectReference: {fileID: 0}
    - target: {fileID: 5514891804009495759, guid: 62a09bcc48bb2b3428b1a964dbb8f02c,
        type: 3}
      propertyPath: m_LocalEulerAnglesHint.x
      value: 0
      objectReference: {fileID: 0}
    - target: {fileID: 5514891804009495759, guid: 62a09bcc48bb2b3428b1a964dbb8f02c,
        type: 3}
      propertyPath: m_LocalEulerAnglesHint.y
      value: 0
      objectReference: {fileID: 0}
    - target: {fileID: 5514891804009495759, guid: 62a09bcc48bb2b3428b1a964dbb8f02c,
        type: 3}
      propertyPath: m_LocalEulerAnglesHint.z
      value: 0
      objectReference: {fileID: 0}
    - target: {fileID: 5514891804009495759, guid: 62a09bcc48bb2b3428b1a964dbb8f02c,
        type: 3}
      propertyPath: m_AnchoredPosition.x
      value: -100
      objectReference: {fileID: 0}
    - target: {fileID: 5514891804009495759, guid: 62a09bcc48bb2b3428b1a964dbb8f02c,
        type: 3}
      propertyPath: m_AnchoredPosition.y
      value: 100
      objectReference: {fileID: 0}
    - target: {fileID: 5514891804009495759, guid: 62a09bcc48bb2b3428b1a964dbb8f02c,
        type: 3}
      propertyPath: m_SizeDelta.x
      value: 200
      objectReference: {fileID: 0}
    - target: {fileID: 5514891804009495759, guid: 62a09bcc48bb2b3428b1a964dbb8f02c,
        type: 3}
      propertyPath: m_SizeDelta.y
      value: 200
      objectReference: {fileID: 0}
    - target: {fileID: 5514891804009495759, guid: 62a09bcc48bb2b3428b1a964dbb8f02c,
        type: 3}
      propertyPath: m_AnchorMin.x
      value: 0.5
      objectReference: {fileID: 0}
    - target: {fileID: 5514891804009495759, guid: 62a09bcc48bb2b3428b1a964dbb8f02c,
        type: 3}
      propertyPath: m_AnchorMin.y
      value: 0.5
      objectReference: {fileID: 0}
    - target: {fileID: 5514891804009495759, guid: 62a09bcc48bb2b3428b1a964dbb8f02c,
        type: 3}
      propertyPath: m_AnchorMax.x
      value: 0.5
      objectReference: {fileID: 0}
    - target: {fileID: 5514891804009495759, guid: 62a09bcc48bb2b3428b1a964dbb8f02c,
        type: 3}
      propertyPath: m_AnchorMax.y
      value: 0.5
      objectReference: {fileID: 0}
    - target: {fileID: 5514891804009495759, guid: 62a09bcc48bb2b3428b1a964dbb8f02c,
        type: 3}
      propertyPath: m_Pivot.x
      value: 0
      objectReference: {fileID: 0}
    - target: {fileID: 5514891804009495759, guid: 62a09bcc48bb2b3428b1a964dbb8f02c,
        type: 3}
      propertyPath: m_Pivot.y
      value: 1
      objectReference: {fileID: 0}
    - target: {fileID: 1986427860349725082, guid: 62a09bcc48bb2b3428b1a964dbb8f02c,
        type: 3}
      propertyPath: m_AnchorMin.y
      value: 0
      objectReference: {fileID: 0}
    - target: {fileID: 1986427860349725082, guid: 62a09bcc48bb2b3428b1a964dbb8f02c,
        type: 3}
      propertyPath: m_AnchorMax.y
      value: 0
      objectReference: {fileID: 0}
    - target: {fileID: 1986427860349725082, guid: 62a09bcc48bb2b3428b1a964dbb8f02c,
        type: 3}
      propertyPath: m_AnchoredPosition.x
      value: 0
      objectReference: {fileID: 0}
    - target: {fileID: 1986427860349725082, guid: 62a09bcc48bb2b3428b1a964dbb8f02c,
        type: 3}
      propertyPath: m_AnchoredPosition.y
      value: 0
      objectReference: {fileID: 0}
    - target: {fileID: 1986427860349725082, guid: 62a09bcc48bb2b3428b1a964dbb8f02c,
        type: 3}
      propertyPath: m_SizeDelta.y
      value: 0
      objectReference: {fileID: 0}
    - target: {fileID: 7634722149258286340, guid: 62a09bcc48bb2b3428b1a964dbb8f02c,
        type: 3}
      propertyPath: m_AnchorMin.y
      value: 1
      objectReference: {fileID: 0}
    - target: {fileID: 7634722149258286340, guid: 62a09bcc48bb2b3428b1a964dbb8f02c,
        type: 3}
      propertyPath: m_AnchorMax.y
      value: 1
      objectReference: {fileID: 0}
    - target: {fileID: 7634722149258286340, guid: 62a09bcc48bb2b3428b1a964dbb8f02c,
        type: 3}
      propertyPath: m_AnchoredPosition.x
      value: 5
      objectReference: {fileID: 0}
    - target: {fileID: 7634722149258286340, guid: 62a09bcc48bb2b3428b1a964dbb8f02c,
        type: 3}
      propertyPath: m_AnchoredPosition.y
      value: -9
      objectReference: {fileID: 0}
    - target: {fileID: 7634722149258286340, guid: 62a09bcc48bb2b3428b1a964dbb8f02c,
        type: 3}
      propertyPath: m_SizeDelta.y
      value: 14
      objectReference: {fileID: 0}
    - target: {fileID: 7634722149258286340, guid: 62a09bcc48bb2b3428b1a964dbb8f02c,
        type: 3}
      propertyPath: m_SizeDelta.x
      value: 0
      objectReference: {fileID: 0}
    - target: {fileID: 5829379981323648936, guid: 62a09bcc48bb2b3428b1a964dbb8f02c,
        type: 3}
      propertyPath: m_AnchorMin.y
      value: 1
      objectReference: {fileID: 0}
    - target: {fileID: 5829379981323648936, guid: 62a09bcc48bb2b3428b1a964dbb8f02c,
        type: 3}
      propertyPath: m_AnchorMax.y
      value: 1
      objectReference: {fileID: 0}
    - target: {fileID: 5829379981323648936, guid: 62a09bcc48bb2b3428b1a964dbb8f02c,
        type: 3}
      propertyPath: m_AnchoredPosition.y
      value: -7
      objectReference: {fileID: 0}
    - target: {fileID: 5829379981323648936, guid: 62a09bcc48bb2b3428b1a964dbb8f02c,
        type: 3}
      propertyPath: m_SizeDelta.x
      value: 0
      objectReference: {fileID: 0}
    - target: {fileID: 5829379981323648936, guid: 62a09bcc48bb2b3428b1a964dbb8f02c,
        type: 3}
      propertyPath: m_AnchoredPosition.x
      value: 7.255
      objectReference: {fileID: 0}
    - target: {fileID: 5651516105673906125, guid: 62a09bcc48bb2b3428b1a964dbb8f02c,
        type: 3}
      propertyPath: m_havePropertiesChanged
      value: 1
      objectReference: {fileID: 0}
    m_RemovedComponents: []
  m_SourcePrefab: {fileID: 100100000, guid: 62a09bcc48bb2b3428b1a964dbb8f02c, type: 3}
--- !u!1 &8132664920851537708 stripped
GameObject:
  m_CorrespondingSourceObject: {fileID: 5084194826137481816, guid: 62a09bcc48bb2b3428b1a964dbb8f02c,
    type: 3}
  m_PrefabInstance: {fileID: 3914674716504190324}
  m_PrefabAsset: {fileID: 0}
--- !u!114 &4301133372551198903 stripped
MonoBehaviour:
  m_CorrespondingSourceObject: {fileID: 1000650046432253379, guid: 62a09bcc48bb2b3428b1a964dbb8f02c,
    type: 3}
  m_PrefabInstance: {fileID: 3914674716504190324}
  m_PrefabAsset: {fileID: 0}
  m_GameObject: {fileID: 0}
  m_Enabled: 1
  m_EditorHideFlags: 0
  m_Script: {fileID: 708705254, guid: f70555f144d8491a825f0804e09c671c, type: 3}
  m_Name: 
  m_EditorClassIdentifier: 
--- !u!1 &3175055041586204121 stripped
GameObject:
  m_CorrespondingSourceObject: {fileID: 1892558943778005165, guid: 62a09bcc48bb2b3428b1a964dbb8f02c,
    type: 3}
  m_PrefabInstance: {fileID: 3914674716504190324}
  m_PrefabAsset: {fileID: 0}
