%YAML 1.1
%TAG !u! tag:unity3d.com,2011:
--- !u!74 &7400000
AnimationClip:
  m_ObjectHideFlags: 0
  m_CorrespondingSourceObject: {fileID: 0}
  m_PrefabInstance: {fileID: 0}
  m_PrefabAsset: {fileID: 0}
  m_Name: image5
  serializedVersion: 6
  m_Legacy: 0
  m_Compressed: 0
  m_UseHighQualityCurve: 1
  m_RotationCurves: []
  m_CompressedRotationCurves: []
  m_EulerCurves: []
  m_PositionCurves: []
  m_ScaleCurves: []
  m_FloatCurves: []
  m_PPtrCurves:
  - curve:
    - time: 0
      value: {fileID: 21300000, guid: 547975db97d405e439242d75396a2f60, type: 3}
    - time: 0.16666667
      value: {fileID: 21300000, guid: 6f434bf27bd666f448aa26b1d992ef81, type: 3}
    - time: 0.33333334
      value: {fileID: 21300000, guid: 91c9ca5be961ea148abca817d679ad27, type: 3}
    - time: 0.5
      value: {fileID: 21300000, guid: 8f6de5e8cf4877245b8af694cd531beb, type: 3}
    - time: 0.6666667
      value: {fileID: 21300000, guid: 1f2ea3f60365bca4bb2f9b1af9680b44, type: 3}
    - time: 0.8333333
      value: {fileID: 21300000, guid: d5edfe121b3b80143ac2e0f9e1b6fbca, type: 3}
    - time: 1
      value: {fileID: 21300000, guid: 6e218281da4594449baf24b7b1251fa4, type: 3}
    - time: 1.1666666
      value: {fileID: 21300000, guid: 0e3a5eeb4267bf84aa8bd0fc5aeafca2, type: 3}
    - time: 1.3333334
      value: {fileID: 21300000, guid: c695c0205b53fa847a6add5f4ba190ea, type: 3}
    - time: 1.5
      value: {fileID: 21300000, guid: ff0c9ebabf5770947b1f3d367eeeb975, type: 3}
    - time: 1.6666666
      value: {fileID: 21300000, guid: eba309d86a35e2b45bbfb3d2d2a922a3, type: 3}
    - time: 1.8333334
      value: {fileID: 21300000, guid: 222b9ece4e2fd714b84bfa62339ca797, type: 3}
    - time: 2
      value: {fileID: 21300000, guid: bc0a6eb46cd06ca418eaef5120a79378, type: 3}
    - time: 2.1666667
      value: {fileID: 21300000, guid: 5c59c5b3caf719f4c88e7d7e94b84495, type: 3}
    - time: 2.3333333
      value: {fileID: 21300000, guid: 872bc89b4113fba48a139c2852c71e26, type: 3}
    - time: 2.5
      value: {fileID: 21300000, guid: c491494d5b1f66b4ea98e01fee98eb22, type: 3}
    - time: 2.6666667
      value: {fileID: 21300000, guid: 9527cafe614600643b0df8f55991fd7d, type: 3}
    - time: 2.8333333
      value: {fileID: 21300000, guid: fc50b729bcffbcc4bbedd59f03f6a4b4, type: 3}
    - time: 3
      value: {fileID: 21300000, guid: d590425df6674764e926f7d059ab03b0, type: 3}
    - time: 3.1666667
      value: {fileID: 21300000, guid: b3e0210e3769bab4695629f341592d18, type: 3}
    attribute: m_Sprite
    path: 
    classID: 114
    script: {fileID: -765806418, guid: f70555f144d8491a825f0804e09c671c, type: 3}
  m_SampleRate: 6
  m_WrapMode: 0
  m_Bounds:
    m_Center: {x: 0, y: 0, z: 0}
    m_Extent: {x: 0, y: 0, z: 0}
  m_ClipBindingConstant:
    genericBindings:
    - serializedVersion: 2
      path: 0
      attribute: 2015549526
      script: {fileID: -765806418, guid: f70555f144d8491a825f0804e09c671c, type: 3}
      typeID: 114
      customType: 0
      isPPtrCurve: 1
    pptrCurveMapping:
    - {fileID: 21300000, guid: 547975db97d405e439242d75396a2f60, type: 3}
    - {fileID: 21300000, guid: 6f434bf27bd666f448aa26b1d992ef81, type: 3}
    - {fileID: 21300000, guid: 91c9ca5be961ea148abca817d679ad27, type: 3}
    - {fileID: 21300000, guid: 8f6de5e8cf4877245b8af694cd531beb, type: 3}
    - {fileID: 21300000, guid: 1f2ea3f60365bca4bb2f9b1af9680b44, type: 3}
    - {fileID: 21300000, guid: d5edfe121b3b80143ac2e0f9e1b6fbca, type: 3}
    - {fileID: 21300000, guid: 6e218281da4594449baf24b7b1251fa4, type: 3}
    - {fileID: 21300000, guid: 0e3a5eeb4267bf84aa8bd0fc5aeafca2, type: 3}
    - {fileID: 21300000, guid: c695c0205b53fa847a6add5f4ba190ea, type: 3}
    - {fileID: 21300000, guid: ff0c9ebabf5770947b1f3d367eeeb975, type: 3}
    - {fileID: 21300000, guid: eba309d86a35e2b45bbfb3d2d2a922a3, type: 3}
    - {fileID: 21300000, guid: 222b9ece4e2fd714b84bfa62339ca797, type: 3}
    - {fileID: 21300000, guid: bc0a6eb46cd06ca418eaef5120a79378, type: 3}
    - {fileID: 21300000, guid: 5c59c5b3caf719f4c88e7d7e94b84495, type: 3}
    - {fileID: 21300000, guid: 872bc89b4113fba48a139c2852c71e26, type: 3}
    - {fileID: 21300000, guid: c491494d5b1f66b4ea98e01fee98eb22, type: 3}
    - {fileID: 21300000, guid: 9527cafe614600643b0df8f55991fd7d, type: 3}
    - {fileID: 21300000, guid: fc50b729bcffbcc4bbedd59f03f6a4b4, type: 3}
    - {fileID: 21300000, guid: d590425df6674764e926f7d059ab03b0, type: 3}
    - {fileID: 21300000, guid: b3e0210e3769bab4695629f341592d18, type: 3}
  m_AnimationClipSettings:
    serializedVersion: 2
    m_AdditiveReferencePoseClip: {fileID: 0}
    m_AdditiveReferencePoseTime: 0
    m_StartTime: 0
    m_StopTime: 3.3333333
    m_OrientationOffsetY: 0
    m_Level: 0
    m_CycleOffset: 0
    m_HasAdditiveReferencePose: 0
    m_LoopTime: 1
    m_LoopBlend: 0
    m_LoopBlendOrientation: 0
    m_LoopBlendPositionY: 0
    m_LoopBlendPositionXZ: 0
    m_KeepOriginalOrientation: 0
    m_KeepOriginalPositionY: 1
    m_KeepOriginalPositionXZ: 0
    m_HeightFromFeet: 0
    m_Mirror: 0
  m_EditorCurves: []
  m_EulerEditorCurves: []
  m_HasGenericRootTransform: 0
  m_HasMotionFloatCurves: 0
  m_Events: []
